{
    "tipovi": [
        {
            "id": 1,
            "group_id": "13",
            "oznaka": "HR Z-18-1001",
            "naziv": "G10; G16; G25",
            "brand": "ACTARIS",
            "pdf": "\/dokumenti\/tipovi\/HR-Z-18-1001-(2003-2013).pdf",
            "created_at": "2021-05-13T11:56:05.000000Z",
            "updated_at": "2021-05-13T11:56:05.000000Z"
        },
        {
            "id": 2,
            "group_id": "13",
            "oznaka": "HR Z-18-1002",
            "naziv": "G40; G65; G100; G160",
            "brand": "ACTARIS",
            "pdf": "\/dokumenti\/tipovi\/HR-Z-18-1002-(2003-2013).pdf",
            "created_at": "2021-05-13T11:58:08.000000Z",
            "updated_at": "2021-05-13T11:58:08.000000Z"
        },
        {
            "id": 3,
            "group_id": "13",
            "oznaka": "HR Z-18-1004",
            "naziv": "G4",
            "brand": "IKOM",
            "pdf": "\/dokumenti\/tipovi\/HR-Z-18-1004-(1992-2002).pdf",
            "created_at": "2021-05-13T12:00:11.000000Z",
            "updated_at": "2021-05-13T12:00:11.000000Z"
        },
        {
            "id": 4,
            "group_id": "13",
            "oznaka": "HR Z-18-1005",
            "naziv": "IRM",
            "brand": "INSTROMET",
            "pdf": "\/dokumenti\/tipovi\/HR-Z-18-1005-(2004-2014).pdf",
            "created_at": "2021-05-13T12:01:52.000000Z",
            "updated_at": "2021-05-13T12:01:52.000000Z"
        },
        {
            "id": 5,
            "group_id": "13",
            "oznaka": "HR Z-18-1006",
            "naziv": "RS\/1,2 G4",
            "brand": "S.A.M. GAS",
            "pdf": "\/dokumenti\/tipovi\/HR-Z-18-1006-(1993-2003).pdf",
            "created_at": "2021-05-13T12:03:38.000000Z",
            "updated_at": "2021-05-13T12:03:38.000000Z"
        },
        {
            "id": 6,
            "group_id": "13",
            "oznaka": "HR Z-18-1007",
            "naziv": "RS\/1,2 G2,5",
            "brand": "S.A.M. GAS",
            "pdf": "\/dokumenti\/tipovi\/HR-Z-18-1007-(1993-2003).pdf",
            "created_at": "2021-05-13T12:05:15.000000Z",
            "updated_at": "2021-05-13T12:05:15.000000Z"
        },
        {
            "id": 7,
            "group_id": "13",
            "oznaka": "HR Z-18-1008",
            "naziv": "RS\/5 G6",
            "brand": "S.A.M. GAS",
            "pdf": "\/dokumenti\/tipovi\/HR-Z-18-1008-(1993-2003).pdf",
            "created_at": "2021-05-13T12:06:26.000000Z",
            "updated_at": "2021-05-13T12:06:26.000000Z"
        },
        {
            "id": 8,
            "group_id": "13",
            "oznaka": "HR Z-18-1009",
            "naziv": "RS\/6 G10",
            "brand": "S.A.M. GAS",
            "pdf": "\/dokumenti\/tipovi\/HR-Z-18-1009-(1993-2003).pdf",
            "created_at": "2021-05-13T12:24:13.000000Z",
            "updated_at": "2021-05-13T12:24:13.000000Z"
        },
        {
            "id": 9,
            "group_id": "13",
            "oznaka": "HR Z-18-1010",
            "naziv": "RS\/10; RS\/20 G16; G25",
            "brand": "S.A.M. GAS",
            "pdf": "\/dokumenti\/tipovi\/HR-Z-18-1010-(1993-2003).pdf",
            "created_at": "2021-05-13T12:26:04.000000Z",
            "updated_at": "2021-05-13T12:26:04.000000Z"
        },
        {
            "id": 10,
            "group_id": "13",
            "oznaka": "HR Z-18-1042",
            "naziv": "CGT",
            "brand": "COMMON S.A.",
            "pdf": "dokumenti\/tipovi\/hr-z-18-1042-2006-2016.pdf",
            "created_at": "2021-05-13T12:28:33.000000Z",
            "updated_at": "2021-05-14T10:06:28.000000Z"
        },
        {
            "id": 11,
            "group_id": "13",
            "oznaka": "HR Z-18-1041",
            "naziv": "CGR",
            "brand": "COMMON S.A.",
            "pdf": "dokumenti\/tipovi\/hr-z-18-1041-2006-2016.pdf",
            "created_at": "2021-05-13T12:29:50.000000Z",
            "updated_at": "2021-05-14T10:06:48.000000Z"
        },
        {
            "id": 12,
            "group_id": "13",
            "oznaka": "HR Z-18-1040",
            "naziv": "G1,6; G2,5; G4; G6; G10; G16; G40; G65",
            "brand": "METRIX S.A.",
            "pdf": "dokumenti\/tipovi\/hr-z-18-1040-2006-2016.pdf",
            "created_at": "2021-05-13T12:33:18.000000Z",
            "updated_at": "2021-05-14T10:07:11.000000Z"
        },
        {
            "id": 13,
            "group_id": "12",
            "oznaka": "HR Z-5-1039",
            "naziv": "(CLOU) MZ 7xxx+X",
            "brand": "Scheidt\u02db&Bachmann TUBS d.o.o.",
            "pdf": "dokumenti\/tipovi\/hr-z-5-1039-2006-2016.pdf",
            "created_at": "2021-05-13T12:40:03.000000Z",
            "updated_at": "2021-05-14T10:07:43.000000Z"
        },
        {
            "id": 14,
            "group_id": "13",
            "oznaka": "HR Z-18-1011",
            "naziv": "RS\/30\/60\/120\/200 G40-G160",
            "brand": "S.A.M. GAS",
            "pdf": "dokumenti\/tipovi\/hr-z-18-1011-1993-2003.pdf",
            "created_at": "2021-05-14T07:58:46.000000Z",
            "updated_at": "2021-05-14T07:58:46.000000Z"
        },
        {
            "id": 15,
            "group_id": "13",
            "oznaka": "HR Z-18-1012",
            "naziv": "S G4",
            "brand": "INSTROMET",
            "pdf": "dokumenti\/tipovi\/hr-z-18-1012-1993-2003.pdf",
            "created_at": "2021-05-14T08:01:56.000000Z",
            "updated_at": "2021-05-14T08:01:56.000000Z"
        },
        {
            "id": 16,
            "group_id": "13",
            "oznaka": "HR Z-18-1013",
            "naziv": "BK4; BK6; BK-GX; GXT; BK-G6M; G6MT; BK G4 G6",
            "brand": "KROMSCHR\u00d6DER AG; ELSTER",
            "pdf": "dokumenti\/tipovi\/hr-z-18-1013-2004-2014.pdf",
            "created_at": "2021-05-14T08:08:46.000000Z",
            "updated_at": "2021-05-14T08:08:46.000000Z"
        },
        {
            "id": 17,
            "group_id": "13",
            "oznaka": "HR Z-18-1014",
            "naziv": "G4R; G6R; G4RF1-MM; G6RF1-MM; G4-RF1",
            "brand": "IKOM d.o.o.; Actaris Gasz\u00e4hler",
            "pdf": "dokumenti\/tipovi\/hr-z-18-1014-2005-2015.pdf",
            "created_at": "2021-05-14T08:14:33.000000Z",
            "updated_at": "2021-05-14T08:14:33.000000Z"
        },
        {
            "id": 18,
            "group_id": "13",
            "oznaka": "HR Z-18-1015",
            "naziv": "DELTA G16-G250; DELTA S G10-G250",
            "brand": "ACTARIS; Schlumberger Rombach",
            "pdf": "dokumenti\/tipovi\/hr-z-18-1015-2006-2016.pdf",
            "created_at": "2021-05-14T08:18:54.000000Z",
            "updated_at": "2021-05-14T10:08:22.000000Z"
        },
        {
            "id": 19,
            "group_id": "13",
            "oznaka": "HR Z-18-1016",
            "naziv": "GT 2,5; GT 4; G 4; G 6; GT 4 TCDL",
            "brand": "GMT Gaselan",
            "pdf": "dokumenti\/tipovi\/hr-z-18-1016-1999-2009.pdf",
            "created_at": "2021-05-14T08:26:31.000000Z",
            "updated_at": "2021-05-14T08:26:31.000000Z"
        },
        {
            "id": 20,
            "group_id": "13",
            "oznaka": "HR Z-18-1018",
            "naziv": "RM G16-G250",
            "brand": "ROMET",
            "pdf": "dokumenti\/tipovi\/hr-z-18-1018-1995-2005.pdf",
            "created_at": "2021-05-14T08:28:55.000000Z",
            "updated_at": "2021-05-14T08:28:55.000000Z"
        },
        {
            "id": 21,
            "group_id": "13",
            "oznaka": "HR Z-18-1019",
            "naziv": "G10; G16; G25; G25T; G40; G40T; G65; G65T; BK - G10; G16; G25",
            "brand": "KROMSCHR\u00d6DER AG; ELSTER",
            "pdf": "dokumenti\/tipovi\/hr-z-18-1019-2005-2015.pdf",
            "created_at": "2021-05-14T08:40:06.000000Z",
            "updated_at": "2021-05-14T08:40:06.000000Z"
        },
        {
            "id": 22,
            "group_id": "13",
            "oznaka": "HR Z-18-1020",
            "naziv": "G40; G65; G100; G160; G250",
            "brand": "ELSTER",
            "pdf": "dokumenti\/tipovi\/hr-z-18-1020-1995-2005.pdf",
            "created_at": "2021-05-14T08:42:14.000000Z",
            "updated_at": "2021-05-14T08:42:14.000000Z"
        },
        {
            "id": 23,
            "group_id": "13",
            "oznaka": "HR Z-18-1021",
            "naziv": "E6 G4",
            "brand": "SIEMENS",
            "pdf": "dokumenti\/tipovi\/hr-z-18-1021-1995-2005.pdf",
            "created_at": "2021-05-14T08:43:29.000000Z",
            "updated_at": "2021-05-14T10:08:46.000000Z"
        },
        {
            "id": 24,
            "group_id": "13",
            "oznaka": "HR Z-18-1022",
            "naziv": "TRZ\/TRZ-IFS; ELSTER",
            "brand": "ELSTER",
            "pdf": "dokumenti\/tipovi\/hr-z-18-1022-2005-2015.pdf",
            "created_at": "2021-05-14T08:46:07.000000Z",
            "updated_at": "2021-05-14T08:46:07.000000Z"
        },
        {
            "id": 25,
            "group_id": "5",
            "oznaka": "HR B-1-1001",
            "naziv": "MINISPEED 2000",
            "brand": "Gesig",
            "pdf": "dokumenti\/tipovi\/hr-b-1-1001-1995-2005.pdf",
            "created_at": "2021-05-14T09:17:42.000000Z",
            "updated_at": "2021-05-14T09:17:42.000000Z"
        },
        {
            "id": 26,
            "group_id": "5",
            "oznaka": "HR B-1-1002",
            "naziv": "FALCON",
            "brand": "KUSTOM SIGNALS INC.",
            "pdf": "dokumenti\/tipovi\/hr-b-1-1002-1997-2007.pdf",
            "created_at": "2021-05-14T09:19:24.000000Z",
            "updated_at": "2021-05-14T09:19:24.000000Z"
        },
        {
            "id": 27,
            "group_id": "13",
            "oznaka": "HR Z-18-1023",
            "naziv": "GALUS G1,6; G2,5; G4",
            "brand": "ACTARIS",
            "pdf": "dokumenti\/tipovi\/hr-z-18-1023-1996-2006.pdf",
            "created_at": "2021-05-14T09:41:19.000000Z",
            "updated_at": "2021-05-14T09:41:19.000000Z"
        },
        {
            "id": 28,
            "group_id": "13",
            "oznaka": "HR Z-18-1024",
            "naziv": "NP 12; NP 20; NP 50; NP 100",
            "brand": "Nuovo Pignone",
            "pdf": "dokumenti\/tipovi\/hr-z-18-1024-2006-2016.pdf",
            "created_at": "2021-05-14T09:43:17.000000Z",
            "updated_at": "2021-05-14T09:43:17.000000Z"
        },
        {
            "id": 29,
            "group_id": "13",
            "oznaka": "HR Z-18-1025",
            "naziv": "BERHE",
            "brand": "Segrad",
            "pdf": "dokumenti\/tipovi\/hr-z-18-1025-1998-2008.pdf",
            "created_at": "2021-05-14T09:44:22.000000Z",
            "updated_at": "2021-05-14T09:44:22.000000Z"
        },
        {
            "id": 30,
            "group_id": "13",
            "oznaka": "HR Z-18-1026",
            "naziv": "TZ\/FLUXI",
            "brand": "ACTARIS",
            "pdf": "dokumenti\/tipovi\/hr-z-18-1026-2006-2016.pdf",
            "created_at": "2021-05-14T09:46:13.000000Z",
            "updated_at": "2021-05-14T09:46:13.000000Z"
        },
        {
            "id": 31,
            "group_id": "13",
            "oznaka": "HR Z-18-1027",
            "naziv": "Q-sonic",
            "brand": "INSTROMET",
            "pdf": "dokumenti\/tipovi\/hr-z-18-1027-1998-2008.pdf",
            "created_at": "2021-05-14T09:47:29.000000Z",
            "updated_at": "2021-05-14T09:47:29.000000Z"
        },
        {
            "id": 32,
            "group_id": "13",
            "oznaka": "HR Z-18-1028",
            "naziv": "SM-RI; SM-RI-C",
            "brand": "INSTROMET",
            "pdf": "dokumenti\/tipovi\/hr-z-18-1028-2000-2010.pdf",
            "created_at": "2021-05-14T09:49:04.000000Z",
            "updated_at": "2021-05-14T09:49:04.000000Z"
        },
        {
            "id": 33,
            "group_id": "13",
            "oznaka": "HR Z-18-1029",
            "naziv": "IRM-3; IRM-3-DUO",
            "brand": "INSTROMET",
            "pdf": "dokumenti\/tipovi\/hr-z-18-1029-2000-2010.pdf",
            "created_at": "2021-05-14T09:50:11.000000Z",
            "updated_at": "2021-05-14T09:50:11.000000Z"
        },
        {
            "id": 34,
            "group_id": "13",
            "oznaka": "HR Z-18-1030",
            "naziv": "TQM",
            "brand": "Dresser Industrial Products B.V.",
            "pdf": "dokumenti\/tipovi\/hr-z-18-1030-2000-2010.pdf",
            "created_at": "2021-05-14T09:51:30.000000Z",
            "updated_at": "2021-05-14T09:51:30.000000Z"
        },
        {
            "id": 35,
            "group_id": "13",
            "oznaka": "HR Z-18-1031",
            "naziv": "BK; BKT",
            "brand": "PREMAGAS s.r.o.",
            "pdf": "dokumenti\/tipovi\/hr-z-18-1031-2001-2011.pdf",
            "created_at": "2021-05-14T09:52:31.000000Z",
            "updated_at": "2021-05-14T09:52:31.000000Z"
        },
        {
            "id": 36,
            "group_id": "13",
            "oznaka": "HR Z-18-1032",
            "naziv": "DKZ",
            "brand": "PREMAGAS s.r.o.",
            "pdf": "dokumenti\/tipovi\/hr-z-18-1032-2001-2011.pdf",
            "created_at": "2021-05-14T09:53:31.000000Z",
            "updated_at": "2021-05-14T09:53:31.000000Z"
        },
        {
            "id": 37,
            "group_id": "13",
            "oznaka": "HR Z-18-1033",
            "naziv": "GALLUS 2002",
            "brand": "ACTARIS",
            "pdf": "dokumenti\/tipovi\/hr-z-18-1033-2002-2012.pdf",
            "created_at": "2021-05-14T09:54:30.000000Z",
            "updated_at": "2021-05-14T09:54:30.000000Z"
        },
        {
            "id": 38,
            "group_id": "13",
            "oznaka": "HR Z-18-1034",
            "naziv": "S1; S2; E5; Ph",
            "brand": "SACOFGAS SpA",
            "pdf": "dokumenti\/tipovi\/hr-z-18-1034-2002-2012.pdf",
            "created_at": "2021-05-14T09:55:50.000000Z",
            "updated_at": "2021-05-14T09:55:50.000000Z"
        },
        {
            "id": 39,
            "group_id": "13",
            "oznaka": "HR Z-18-1035",
            "naziv": "G 40-G 4000",
            "brand": "Aerzener Maschinenfabrik GmbH",
            "pdf": "dokumenti\/tipovi\/hr-z-18-1035-2002-2012.pdf",
            "created_at": "2021-05-14T09:56:55.000000Z",
            "updated_at": "2021-05-14T09:56:55.000000Z"
        },
        {
            "id": 40,
            "group_id": "13",
            "oznaka": "HR Z-18-1036",
            "naziv": "RVG G16\u2013G250",
            "brand": "ELSTER",
            "pdf": "dokumenti\/tipovi\/hr-z-18-1036-2003-2013.pdf",
            "created_at": "2021-05-14T09:58:30.000000Z",
            "updated_at": "2021-05-14T09:58:30.000000Z"
        },
        {
            "id": 41,
            "group_id": "13",
            "oznaka": "HR Z-18-1037",
            "naziv": "G1,6-S,TK; G2,5-S,TK; G4-S,TK",
            "brand": "UNIS-FAGAS d.o.o.",
            "pdf": "dokumenti\/tipovi\/hr-z-18-1037-2004-2014.pdf",
            "created_at": "2021-05-14T10:00:17.000000Z",
            "updated_at": "2021-05-14T10:00:17.000000Z"
        },
        {
            "id": 42,
            "group_id": "13",
            "oznaka": "HR Z-18-1038",
            "naziv": "FLOWSIC 600",
            "brand": "SICK\/MAIHAK",
            "pdf": "dokumenti\/tipovi\/hr-z-18-1038-2005-2015.pdf",
            "created_at": "2021-05-14T10:01:35.000000Z",
            "updated_at": "2021-05-14T10:01:35.000000Z"
        },
        {
            "id": 43,
            "group_id": "13",
            "oznaka": "HR Z-18-1039",
            "naziv": "MPU 1200; MPU 600",
            "brand": "FMC Technologies, Smith Meter GmbH",
            "pdf": "dokumenti\/tipovi\/hr-z-18-1039-2006-2016.pdf",
            "created_at": "2021-05-14T10:02:53.000000Z",
            "updated_at": "2021-05-14T10:02:53.000000Z"
        },
        {
            "id": 44,
            "group_id": "13",
            "oznaka": "HR Z-18-1043",
            "naziv": "ERxLyMC; ERxLyMC HP; ERxLyMC SS",
            "brand": "Fornovogas",
            "pdf": "dokumenti\/tipovi\/hr-z-18-1043-2011-2021.pdf",
            "created_at": "2021-05-14T10:06:10.000000Z",
            "updated_at": "2021-05-14T10:06:10.000000Z"
        },
        {
            "id": 45,
            "group_id": "13",
            "oznaka": "TSK 143\/16-062",
            "naziv": "TRZ2",
            "brand": "ELSTER",
            "pdf": "dokumenti\/tipovi\/tsk-143-16-062.pdf",
            "created_at": "2021-05-14T10:15:50.000000Z",
            "updated_at": "2021-05-14T10:15:50.000000Z"
        },
        {
            "id": 46,
            "group_id": "13",
            "oznaka": "T10185",
            "naziv": "Summit 8800",
            "brand": "Krohne Oil and Gas",
            "pdf": "dokumenti\/tipovi\/t101085.pdf",
            "created_at": "2021-05-14T10:19:52.000000Z",
            "updated_at": "2021-05-14T10:19:52.000000Z"
        },
        {
            "id": 47,
            "group_id": "12",
            "oznaka": "Z-5-2\/2",
            "naziv": "2D120\u2026",
            "brand": "PRVOMAJSKA-TUBS",
            "pdf": "dokumenti\/tipovi\/hr-z-5-2-2-dopuna-u-k-i-n-u-t-o.pdf",
            "created_at": "2021-05-14T10:22:17.000000Z",
            "updated_at": "2021-05-14T10:22:17.000000Z"
        },
        {
            "id": 48,
            "group_id": "12",
            "oznaka": "Z-5-3",
            "naziv": "D\u2026, DM\u2026",
            "brand": "PRVOMAJSKA-TUBS",
            "pdf": "dokumenti\/tipovi\/hr-z-5-3-dopuna-u-k-i-n-u-t-o.pdf",
            "created_at": "2021-05-14T10:23:04.000000Z",
            "updated_at": "2021-05-14T10:23:04.000000Z"
        },
        {
            "id": 49,
            "group_id": "12",
            "oznaka": "Z-5-5-1",
            "naziv": "ER 3\/2",
            "brand": "Kienzle Apparate",
            "pdf": "dokumenti\/tipovi\/hr-z-5-5-1-dopuna-u-k-i-n-u-t-o.pdf",
            "created_at": "2021-05-14T10:25:09.000000Z",
            "updated_at": "2021-05-14T10:25:09.000000Z"
        },
        {
            "id": 50,
            "group_id": "12",
            "oznaka": "Z-5-6",
            "naziv": "MPD\u2026, MPDM\u2026",
            "brand": "PRVOMAJSKA-TUBS",
            "pdf": "dokumenti\/tipovi\/hr-z-5-6-dopuna-u-k-i-n-u-t-o.pdf",
            "created_at": "2021-05-14T10:25:58.000000Z",
            "updated_at": "2021-05-14T10:25:58.000000Z"
        },
        {
            "id": 51,
            "group_id": "12",
            "oznaka": "HR Z-5-1001",
            "naziv": "GD 452 VE-RN",
            "brand": "PRVOMAJSKA-TUBS",
            "pdf": "dokumenti\/tipovi\/hr-z-5-1001-1993-2003.pdf",
            "created_at": "2021-05-14T10:27:08.000000Z",
            "updated_at": "2021-05-14T10:27:08.000000Z"
        },
        {
            "id": 52,
            "group_id": "12",
            "oznaka": "HR Z-5-1002",
            "naziv": "EUROTRON II, EUROTRON SPECTRA i H-DISPENZER",
            "brand": "TOKHEIM\/Schlumberger",
            "pdf": "dokumenti\/tipovi\/hr-z-5-1002-1995-2005.pdf",
            "created_at": "2021-05-14T10:31:10.000000Z",
            "updated_at": "2021-05-14T10:31:10.000000Z"
        },
        {
            "id": 53,
            "group_id": "12",
            "oznaka": "HR Z-5-1003",
            "naziv": "ZSK; HDK; PRIMA",
            "brand": "TOKHEIM",
            "pdf": "dokumenti\/tipovi\/hr-z-5-1003-1996-2006.pdf",
            "created_at": "2021-05-14T10:33:02.000000Z",
            "updated_at": "2021-05-14T10:33:02.000000Z"
        },
        {
            "id": 54,
            "group_id": "12",
            "oznaka": "HR Z-5-1004",
            "naziv": "DPC, DPBA i DPX (A) (F) (X)",
            "brand": "Nuovo Pignone S.p.A.",
            "pdf": "dokumenti\/tipovi\/hr-z-5-1004-2006-2016.pdf",
            "created_at": "2021-05-14T10:34:30.000000Z",
            "updated_at": "2021-05-14T10:34:30.000000Z"
        },
        {
            "id": 55,
            "group_id": "12",
            "oznaka": "HR Z-5-1005",
            "naziv": "MZ 60XXS; MZ 61XXS; 24XXS; MZ 61XX; 24XX;",
            "brand": "Scheidt\u02db&Bachmann TUBS d.o.o.",
            "pdf": "dokumenti\/tipovi\/hr-z-5-1005-2005.pdf",
            "created_at": "2021-05-14T10:40:56.000000Z",
            "updated_at": "2021-05-14T10:40:56.000000Z"
        },
        {
            "id": 56,
            "group_id": "12",
            "oznaka": "HR Z-5-1006",
            "naziv": "373; 378",
            "brand": "Wayne Dresser",
            "pdf": "dokumenti\/tipovi\/hr-z-5-1006-1996-2006.pdf",
            "created_at": "2021-05-14T10:42:24.000000Z",
            "updated_at": "2021-05-14T10:42:24.000000Z"
        },
        {
            "id": 57,
            "group_id": "12",
            "oznaka": "HR Z-5-1007",
            "naziv": "390; 395; 401; 587; 587-1; 395-1; 587 H-1; 390-1",
            "brand": "Wayne Dresser",
            "pdf": "dokumenti\/tipovi\/hr-z-5-1007-1996-2006.pdf",
            "created_at": "2021-05-14T10:44:25.000000Z",
            "updated_at": "2021-05-14T10:44:25.000000Z"
        },
        {
            "id": 58,
            "group_id": "12",
            "oznaka": "HR Z-5-1009",
            "naziv": "DELTA XXxxxBxx",
            "brand": "Scheidt\u02db&Bachmann TUBS d.o.o.",
            "pdf": "dokumenti\/tipovi\/hr-z-5-1009-2001.pdf",
            "created_at": "2021-05-14T10:45:23.000000Z",
            "updated_at": "2021-05-14T10:45:23.000000Z"
        },
        {
            "id": 59,
            "group_id": "12",
            "oznaka": "HR Z-5-1010",
            "naziv": "HECPUMP 2333",
            "brand": "Hectronic Kienzle",
            "pdf": "dokumenti\/tipovi\/hr-z-5-1010-1999-2009.pdf",
            "created_at": "2021-05-14T10:46:51.000000Z",
            "updated_at": "2021-05-14T10:46:51.000000Z"
        },
        {
            "id": 60,
            "group_id": "12",
            "oznaka": "HR Z-5-1012",
            "naziv": "4xxx; 8xxx; 89x.xxx; 899x,xxx\/CA",
            "brand": "ADAST-SYSTEMS a.s.",
            "pdf": "dokumenti\/tipovi\/hr-z-5-1012-2006.pdf",
            "created_at": "2021-05-14T10:48:53.000000Z",
            "updated_at": "2021-05-14T10:48:53.000000Z"
        },
        {
            "id": 61,
            "group_id": "12",
            "oznaka": "HR Z-5-1014",
            "naziv": "QUANTIUM XXX; QUANTIUM XXX T;  QXXX T COMBO",
            "brand": "TOKHEIM",
            "pdf": "dokumenti\/tipovi\/hr-z-5-1014-2007-2017.pdf",
            "created_at": "2021-05-14T10:51:59.000000Z",
            "updated_at": "2021-05-14T10:51:59.000000Z"
        },
        {
            "id": 62,
            "group_id": "12",
            "oznaka": "HR Z-5-1015",
            "naziv": "687; 687-1; GLOBAL STAR; GLOBAL CENTURY",
            "brand": "Wayne Dresser",
            "pdf": "dokumenti\/tipovi\/hr-z-5-1015-1999-2009.pdf",
            "created_at": "2021-05-14T10:54:35.000000Z",
            "updated_at": "2021-05-14T10:54:35.000000Z"
        },
        {
            "id": 63,
            "group_id": "12",
            "oznaka": "HR Z-5-1016",
            "naziv": "15XX",
            "brand": "TOKHEIM",
            "pdf": "dokumenti\/tipovi\/hr-z-5-1016-2000-2010.pdf",
            "created_at": "2021-05-14T10:55:36.000000Z",
            "updated_at": "2021-05-14T10:55:36.000000Z"
        },
        {
            "id": 64,
            "group_id": "12",
            "oznaka": "HR Z-5-1017",
            "naziv": "3XX; 4XX; 6XX; 7XX",
            "brand": "TOKHEIM",
            "pdf": "dokumenti\/tipovi\/hr-z-5-1017-2000-2010.pdf",
            "created_at": "2021-05-14T10:56:59.000000Z",
            "updated_at": "2021-05-14T10:56:59.000000Z"
        },
        {
            "id": 65,
            "group_id": "12",
            "oznaka": "HR Z-5-1018",
            "naziv": "587 LPG; 687 LPG; 395 LPG; GLOBAL STAR; GLOBAL CENTURY",
            "brand": "Wayne Dresser",
            "pdf": "dokumenti\/tipovi\/hr-z-5-1018-2001-2010.pdf",
            "created_at": "2021-05-14T10:59:18.000000Z",
            "updated_at": "2021-05-14T10:59:18.000000Z"
        },
        {
            "id": 66,
            "group_id": "12",
            "oznaka": "HR Z-5-1019",
            "naziv": "ADAST LPG 899x.xxx\/LPG; 47xx.xxx\/LPG",
            "brand": "ADAST SYSTEMS a.s.",
            "pdf": "dokumenti\/tipovi\/hr-z-5-1019-2001-2011.pdf",
            "created_at": "2021-05-14T11:45:24.000000Z",
            "updated_at": "2021-05-14T11:45:24.000000Z"
        },
        {
            "id": 67,
            "group_id": "12",
            "oznaka": "HR Z-5-1020",
            "naziv": "DPC 050 LE; DPBA 050LE",
            "brand": "Wayne Dresser\/Nuovo Pignone S.p.A.",
            "pdf": "dokumenti\/tipovi\/hr-z-5-1020-2002-2012.pdf",
            "created_at": "2021-05-14T11:47:32.000000Z",
            "updated_at": "2021-05-14T11:47:32.000000Z"
        },
        {
            "id": 68,
            "group_id": "12",
            "oznaka": "HR Z-5-1022",
            "naziv": "MT 89\/1, MT 89\/2, MT 74\/1 i MT 74\/2",
            "brand": "NUOVA-MIGAS",
            "pdf": "dokumenti\/tipovi\/hr-z-5-1022-2002-2012.pdf",
            "created_at": "2021-05-14T11:56:26.000000Z",
            "updated_at": "2021-05-14T11:56:26.000000Z"
        },
        {
            "id": 69,
            "group_id": "12",
            "oznaka": "HR Z-5-1021",
            "naziv": "Spectra LPG xxx; Spectra Eurogaz LPG xxx; Spectra LPG xxx; QUANTIUM xxxT LPG",
            "brand": "TOKHEIM",
            "pdf": "dokumenti\/tipovi\/hr-z-5-1021-2002-2012.pdf",
            "created_at": "2021-05-14T12:17:01.000000Z",
            "updated_at": "2021-05-14T12:17:01.000000Z"
        },
        {
            "id": 70,
            "group_id": "12",
            "oznaka": "HR Z-1025",
            "naziv": "BENETT 4025",
            "brand": "BENNETT\/FIMAC S.r.l.",
            "pdf": "dokumenti\/tipovi\/hr-z-5-1025-2003-prilog-rjesenju.pdf",
            "created_at": "2021-05-14T12:19:52.000000Z",
            "updated_at": "2021-05-14T12:19:52.000000Z"
        }
    ]
}